[gd_resource type="Environment" load_steps=3 format=2]

[ext_resource path="res://densedepth/textures/Chelsea_Stairs_3k.hdr" type="Texture" id=1]

[sub_resource type="PanoramaSky" id=1]
panorama = ExtResource( 1 )

[resource]
background_mode = 3
background_sky = SubResource( 1 )
background_energy = 0.2
glow_enabled = true
